\relax 
\catcode `:\active 
\catcode `;\active 
\catcode `!\active 
\catcode `?\active 
\select@language{french}
\@writefile{toc}{\select@language{french}}
\@writefile{lof}{\select@language{french}}
\@writefile{lot}{\select@language{french}}
\@writefile{toc}{\contentsline {chapter}{\numberline {1}D\IeC {\'e}marche}{1}}
\@writefile{lof}{\addvspace {10\p@ }}
\@writefile{lot}{\addvspace {10\p@ }}
\@writefile{lof}{\contentsline {figure}{\numberline {1.1}{\ignorespaces Diagramme des cas d'utilisation du site web \IeC {\`A} l'huile cin\IeC {\'e}}}{2}}
\@writefile{toc}{\contentsline {chapter}{\numberline {2}Choix et outils utilis\IeC {\'e}s}{3}}
\@writefile{lof}{\addvspace {10\p@ }}
\@writefile{lot}{\addvspace {10\p@ }}
\@writefile{toc}{\contentsline {section}{\numberline {2.1}Django}{3}}
\@writefile{toc}{\contentsline {subsection}{\numberline {2.1.1}Une solution adapt\IeC {\'e}e aux besoins}{3}}
\@writefile{toc}{\contentsline {subsection}{\numberline {2.1.2}Installation et lancement de l'application}{3}}
\@writefile{toc}{\contentsline {section}{\numberline {2.2}Architecture de l'application}{4}}
\@writefile{toc}{\contentsline {subsection}{\numberline {2.2.1}Mod\IeC {\`e}les}{4}}
\@writefile{lof}{\contentsline {figure}{\numberline {2.1}{\ignorespaces Diagramme de classes du site web \IeC {\`A} l'huile cin\IeC {\'e}}}{5}}
\@writefile{toc}{\contentsline {subsection}{\numberline {2.2.2}Templates}{5}}
\@writefile{lof}{\contentsline {figure}{\numberline {2.2}{\ignorespaces Capture d'\IeC {\'e}cran de la liste des films en mode utilisateur}}{7}}
\@writefile{lof}{\contentsline {figure}{\numberline {2.3}{\ignorespaces Capture d'\IeC {\'e}cran du d\IeC {\'e}tail d'un film et de son forum en mode utilisateur}}{8}}
\@writefile{toc}{\contentsline {subsection}{\numberline {2.2.3}Vues}{9}}
\@writefile{lof}{\contentsline {figure}{\numberline {2.4}{\ignorespaces Architecture Django}}{9}}
\@writefile{toc}{\contentsline {section}{\numberline {2.3}Gestion de versions}{10}}
\@writefile{toc}{\contentsline {chapter}{\numberline {3}Conclusion}{11}}
\@writefile{lof}{\addvspace {10\p@ }}
\@writefile{lot}{\addvspace {10\p@ }}
\@writefile{toc}{\contentsline {section}{\numberline {3.1}Analyse des probl\IeC {\`e}mes rencontr\IeC {\'e}s}{11}}
\@writefile{toc}{\contentsline {section}{\numberline {3.2}Perspectives de d\IeC {\'e}veloppement}{12}}
\@writefile{toc}{\contentsline {chapter}{Sitographie}{13}}
